\relax 
\catcode`"\active
\catcode`<\active
\catcode`>\active
\@nameuse{es@quoting}
\select@language{spanish}
\@writefile{toc}{\select@language{spanish}}
\@writefile{lof}{\select@language{spanish}}
\@writefile{lot}{\select@language{spanish}}
\@writefile{toc}{\contentsline {section}{\numberline {1}Introducci\IeC {\'o}n te\IeC {\'o}rica}{3}}
\@writefile{toc}{\contentsline {subsection}{\numberline {1.1}Distribuci\IeC {\'o}n gamma generalizada}{3}}
\newlabel{sec:intro-dist-gamma-gen}{{1.1}{3}}
\newlabel{eqn:sigma}{{1}{3}}
\newlabel{eqn:lambda}{{2}{3}}
\newlabel{eqn:sol1}{{3}{3}}
\newlabel{eqn:sol2}{{4}{3}}
\newlabel{eqn:auxiliaries}{{5}{3}}
\newlabel{eqn:flogbeta}{{6}{3}}
\newlabel{eqn:fbeta}{{7}{3}}
\@writefile{toc}{\contentsline {subsection}{\numberline {1.2}M\IeC {\'e}todo de bisecci\IeC {\'o}n}{3}}
\newlabel{sec:intro-biseccion}{{1.2}{3}}
\@writefile{toc}{\contentsline {subsection}{\numberline {1.3}M\IeC {\'e}todo de Newton}{4}}
\newlabel{eqn:newton-g}{{8}{4}}
\@writefile{toc}{\contentsline {section}{\numberline {2}Desarrollo}{5}}
\@writefile{toc}{\contentsline {subsection}{\numberline {2.1}Experimentaci\IeC {\'o}n}{5}}
\@writefile{toc}{\contentsline {subsection}{\numberline {2.2}Aplicaci\IeC {\'o}n de los m\IeC {\'e}todos al problema}{5}}
\newlabel{sec:desarrollo-aplicacion-metodos-problema}{{2.2}{5}}
\@writefile{lof}{\contentsline {figure}{\numberline {1}{\ignorespaces Gr\IeC {\'a}fica de $L_X(x)$ y $F_X(x)$ para la muestra 8.}}{5}}
\newlabel{fig:grafico-LyF-muestra8}{{1}{5}}
\@writefile{lof}{\contentsline {figure}{\numberline {2}{\ignorespaces Gr\IeC {\'a}fica de $L_X(x)$ y $F_X(x)$ para la muestra 3.}}{6}}
\newlabel{fig:grafico-LyF-muestra3}{{2}{6}}
\@writefile{toc}{\contentsline {subsection}{\numberline {2.3}C\IeC {\'o}mputo de las funciones}{6}}
\newlabel{sec:computo-funciones}{{2.3}{6}}
\@writefile{toc}{\contentsline {subsection}{\numberline {2.4}Criterio de parada}{6}}
\@writefile{toc}{\contentsline {subsection}{\numberline {2.5}Precisi\IeC {\'o}n en el tipo de datos}{7}}
\@writefile{toc}{\contentsline {section}{\numberline {3}Resultados}{8}}
\@writefile{toc}{\contentsline {subsection}{\numberline {3.1}Experimentos sobre $x_0$}{8}}
\newlabel{sec:resultados-x0}{{3.1}{8}}
\@writefile{lof}{\contentsline {figure}{\numberline {3}{\ignorespaces Muestra 5. $x_n$ en funci\IeC {\'o}n de $n$ para distintos $x_0$. M\IeC {\'e}todos de bisecci\IeC {\'o}n y Newton (izquierda, derecha) utilizando la funci\IeC {\'o}n objetivo $F_X(x)$, con nivel de precisi\IeC {\'o}n alto.}}{8}}
\newlabel{fig:xnvsn-muestra-5}{{3}{8}}
\@writefile{lof}{\contentsline {figure}{\numberline {4}{\ignorespaces Muestra 3. $x_n$ en funci\IeC {\'o}n de $n$ para distintos $x_0$. M\IeC {\'e}todo de Newton, utilizando ambas funciones (izquierda $L_X(x)$, derecha $F_X(x)$), con nivel de precisi\IeC {\'o}n alto.}}{8}}
\newlabel{fig:xnvsn-muestra-3}{{4}{8}}
\@writefile{toc}{\contentsline {subsection}{\numberline {3.2}Eficiencia y error en el resultado}{8}}
\newlabel{ref:resultados-eficiencia-error}{{3.2}{8}}
\@writefile{lof}{\contentsline {figure}{\numberline {5}{\ignorespaces Muestra 9. $x_n$ en funci\IeC {\'o}n de $n$ para distintos $x_0$. M\IeC {\'e}todo de bisecci\IeC {\'o}n, utilizando la funci\IeC {\'o}n $L_X(x)$, con nivel de precisi\IeC {\'o}n alto.}}{9}}
\newlabel{fig:xnvsn-muestra-9}{{5}{9}}
\@writefile{toc}{\contentsline {subsection}{\numberline {3.3}Ajuste a los datos}{9}}
\@writefile{lof}{\contentsline {figure}{\numberline {6}{\ignorespaces Casos varios. M\IeC {\'e}todo de Newton. $x_n$ en funci\IeC {\'o}n de $n$ para distintos $x_0$.}}{10}}
\newlabel{fig:xnvsn-casos-varios}{{6}{10}}
\@writefile{lof}{\contentsline {figure}{\numberline {7}{\ignorespaces Tiempo de ejecuci\IeC {\'o}n y cantidad de iteraciones en cada muestra para todas las combinaciones de m\IeC {\'e}todo y funci\IeC {\'o}n objetivo.}}{10}}
\newlabel{fig:barras-eficiencia}{{7}{10}}
\newlabel{fig:XnvsN}{{3.2}{11}}
\@writefile{lof}{\contentsline {figure}{\numberline {8}{\ignorespaces Error relativo respecto al resultado en cada muestra para todas las combinaciones de m\IeC {\'e}todo y funci\IeC {\'o}n objetivo.}}{11}}
\newlabel{fig:barras-error}{{8}{11}}
\@writefile{lof}{\contentsline {figure}{\numberline {9}{\ignorespaces Ajuste de la D$\Gamma $G al histograma de los datos. }}{11}}
\newlabel{fig:ajuste}{{9}{11}}
\@writefile{toc}{\contentsline {subsection}{\numberline {3.4}Experimentos sobre la precisi\IeC {\'o}n en el tipo de datos y tolerancia}{12}}
\@writefile{lof}{\contentsline {figure}{\numberline {10}{\ignorespaces Muestra 1. $x_n$ en funci\IeC {\'o}n de $n$ para distintos $x_0$ para ambos m\IeC {\'e}todos, usando baja precisi\IeC {\'o}n y baja tolerancia.}}{12}}
\newlabel{fig:xnvsn-muestra1-bajaprecision}{{10}{12}}
\@writefile{lof}{\contentsline {figure}{\numberline {11}{\ignorespaces Muestra 1. M\IeC {\'e}todo de bisecci\IeC {\'o}n. $x_n$ en funci\IeC {\'o}n de $n$ para distintos $x_0$, usando precisiones bajas y alta tolerancia.}}{12}}
\newlabel{fig:xnvsn-muestra1-bajaprecision-altatolerancia}{{11}{12}}
\@writefile{lof}{\contentsline {figure}{\numberline {12}{\ignorespaces Error relativo para cada combinaci\IeC {\'o}n de m\IeC {\'e}todo y funci\IeC {\'o}n objetivo al utilizar un nivel de precisi\IeC {\'o}n m\IeC {\'a}s limitado.}}{13}}
\newlabel{fig:error-bajaprecision}{{12}{13}}
\@writefile{toc}{\contentsline {section}{\numberline {4}Discusi\IeC {\'o}n}{14}}
\@writefile{toc}{\contentsline {subsection}{\numberline {4.1}Garant\IeC {\'\i }as de convergencia}{14}}
\@writefile{toc}{\contentsline {subsection}{\numberline {4.2}Comparaciones de eficiencia}{14}}
\@writefile{toc}{\contentsline {subsection}{\numberline {4.3}Error en el resultado y ajuste a los datos}{14}}
\@writefile{toc}{\contentsline {subsection}{\numberline {4.4}Precisi\IeC {\'o}n}{14}}
\@writefile{toc}{\contentsline {section}{\numberline {5}Conclusiones}{16}}
\@writefile{toc}{\contentsline {section}{\numberline {6}Ap\IeC {\'e}ndices}{17}}
\@writefile{toc}{\contentsline {subsection}{\numberline {6.1}Ap\IeC {\'e}ndice A: Enunciado del TP}{17}}
\@writefile{toc}{\contentsline {subsection}{\numberline {6.2}Ap\IeC {\'e}ndice B: Codigo fuente}{17}}
\@writefile{toc}{\contentsline {subsubsection}{\numberline {6.2.1}MetnumMethod.h}{17}}
\newlabel{subsec:MetnumMethod}{{6.2.1}{18}}
\@writefile{toc}{\contentsline {subsubsection}{\numberline {6.2.2}MetnumBisectionMethod.cpp}{18}}
\newlabel{subsec:MetnumBisectionMethod}{{6.2.2}{19}}
\@writefile{toc}{\contentsline {subsubsection}{\numberline {6.2.3}MetnumNewtonMethod.cpp}{19}}
\newlabel{subsec:MetnumNewtonMethod}{{6.2.3}{20}}
\@writefile{toc}{\contentsline {subsubsection}{\numberline {6.2.4}MetnumFunctor.cpp}{20}}
\newlabel{subsec:MetnumFunctor}{{6.2.4}{21}}
\@writefile{toc}{\contentsline {subsubsection}{\numberline {6.2.5}TFloat.cpp}{22}}
\newlabel{subsec:TFloat}{{6.2.5}{24}}
\@writefile{toc}{\contentsline {section}{\numberline {7}Referencias}{25}}
