%!PS-Adobe-2.0 EPSF-1.2
%%Creator: MATLAB, The MathWorks, Inc. Version 7.12.0.635 (R2011a). Operating System: Linux 3.2.0-4-amd64 #1 SMP Debian 3.2.35-2 x86_64.
%%Title: ./X5bisec.eps
%%CreationDate: 04/09/2013  01:38:13
%%DocumentNeededFonts: Helvetica
%%DocumentProcessColors: Cyan Magenta Yellow Black
%%Pages: 1
%%BoundingBox:    60   199   548   589
%%EndComments

%%BeginProlog
% MathWorks dictionary
/MathWorks 160 dict begin
% definition operators
/bdef {bind def} bind def
/ldef {load def} bind def
/xdef {exch def} bdef
/xstore {exch store} bdef
% operator abbreviations
/c  /clip ldef
/cc /concat ldef
/cp /closepath ldef
/gr /grestore ldef
/gs /gsave ldef
/mt /moveto ldef
/np /newpath ldef
/cm /currentmatrix ldef
/sm /setmatrix ldef
/rm /rmoveto ldef
/rl /rlineto ldef
/s {show newpath} bdef
/sc {setcmykcolor} bdef
/sr /setrgbcolor ldef
/sg /setgray ldef
/w /setlinewidth ldef
/j /setlinejoin ldef
/cap /setlinecap ldef
/rc {rectclip} bdef
/rf {rectfill} bdef
% page state control
/pgsv () def
/bpage {/pgsv save def} bdef
/epage {pgsv restore} bdef
/bplot /gsave ldef
/eplot {stroke grestore} bdef
% orientation switch
/portraitMode 0 def /landscapeMode 1 def /rotateMode 2 def
% coordinate system mappings
/dpi2point 0 def
% font control
/FontSize 0 def
/FMS {/FontSize xstore findfont [FontSize 0 0 FontSize neg 0 0]
  makefont setfont} bdef
/reencode {exch dup where {pop load} {pop StandardEncoding} ifelse
  exch dup 3 1 roll findfont dup length dict begin
  { 1 index /FID ne {def}{pop pop} ifelse } forall
  /Encoding exch def currentdict end definefont pop} bdef
/isroman {findfont /CharStrings get /Agrave known} bdef
/FMSR {3 1 roll 1 index dup isroman {reencode} {pop pop} ifelse
  exch FMS} bdef
/csm {1 dpi2point div -1 dpi2point div scale neg translate
 dup landscapeMode eq {pop -90 rotate}
  {rotateMode eq {90 rotate} if} ifelse} bdef
% line types: solid, dotted, dashed, dotdash
/SO { [] 0 setdash } bdef
/DO { [.5 dpi2point mul 4 dpi2point mul] 0 setdash } bdef
/DA { [6 dpi2point mul] 0 setdash } bdef
/DD { [.5 dpi2point mul 4 dpi2point mul 6 dpi2point mul 4
  dpi2point mul] 0 setdash } bdef
% macros for lines and objects
/L {lineto stroke} bdef
/MP {3 1 roll moveto 1 sub {rlineto} repeat} bdef
/AP {{rlineto} repeat} bdef
/PDlw -1 def
/W {/PDlw currentlinewidth def setlinewidth} def
/PP {closepath eofill} bdef
/DP {closepath stroke} bdef
/MR {4 -2 roll moveto dup  0 exch rlineto exch 0 rlineto
  neg 0 exch rlineto closepath} bdef
/FR {MR stroke} bdef
/PR {MR fill} bdef
/L1i {{currentfile picstr readhexstring pop} image} bdef
/tMatrix matrix def
/MakeOval {newpath tMatrix currentmatrix pop translate scale
0 0 1 0 360 arc tMatrix setmatrix} bdef
/FO {MakeOval stroke} bdef
/PO {MakeOval fill} bdef
/PD {currentlinewidth 2 div 0 360 arc fill
   PDlw -1 eq not {PDlw w /PDlw -1 def} if} def
/FA {newpath tMatrix currentmatrix pop translate scale
  0 0 1 5 -2 roll arc tMatrix setmatrix stroke} bdef
/PA {newpath tMatrix currentmatrix pop	translate 0 0 moveto scale
  0 0 1 5 -2 roll arc closepath tMatrix setmatrix fill} bdef
/FAn {newpath tMatrix currentmatrix pop translate scale
  0 0 1 5 -2 roll arcn tMatrix setmatrix stroke} bdef
/PAn {newpath tMatrix currentmatrix pop translate 0 0 moveto scale
  0 0 1 5 -2 roll arcn closepath tMatrix setmatrix fill} bdef
/vradius 0 def /hradius 0 def /lry 0 def
/lrx 0 def /uly 0 def /ulx 0 def /rad 0 def
/MRR {/vradius xdef /hradius xdef /lry xdef /lrx xdef /uly xdef
  /ulx xdef newpath tMatrix currentmatrix pop ulx hradius add uly
  vradius add translate hradius vradius scale 0 0 1 180 270 arc 
  tMatrix setmatrix lrx hradius sub uly vradius add translate
  hradius vradius scale 0 0 1 270 360 arc tMatrix setmatrix
  lrx hradius sub lry vradius sub translate hradius vradius scale
  0 0 1 0 90 arc tMatrix setmatrix ulx hradius add lry vradius sub
  translate hradius vradius scale 0 0 1 90 180 arc tMatrix setmatrix
  closepath} bdef
/FRR {MRR stroke } bdef
/PRR {MRR fill } bdef
/MlrRR {/lry xdef /lrx xdef /uly xdef /ulx xdef /rad lry uly sub 2 div def
  newpath tMatrix currentmatrix pop ulx rad add uly rad add translate
  rad rad scale 0 0 1 90 270 arc tMatrix setmatrix lrx rad sub lry rad
  sub translate rad rad scale 0 0 1 270 90 arc tMatrix setmatrix
  closepath} bdef
/FlrRR {MlrRR stroke } bdef
/PlrRR {MlrRR fill } bdef
/MtbRR {/lry xdef /lrx xdef /uly xdef /ulx xdef /rad lrx ulx sub 2 div def
  newpath tMatrix currentmatrix pop ulx rad add uly rad add translate
  rad rad scale 0 0 1 180 360 arc tMatrix setmatrix lrx rad sub lry rad
  sub translate rad rad scale 0 0 1 0 180 arc tMatrix setmatrix
  closepath} bdef
/FtbRR {MtbRR stroke } bdef
/PtbRR {MtbRR fill } bdef
/stri 6 array def /dtri 6 array def
/smat 6 array def /dmat 6 array def
/tmat1 6 array def /tmat2 6 array def /dif 3 array def
/asub {/ind2 exch def /ind1 exch def dup dup
  ind1 get exch ind2 get sub exch } bdef
/tri_to_matrix {
  2 0 asub 3 1 asub 4 0 asub 5 1 asub
  dup 0 get exch 1 get 7 -1 roll astore } bdef
/compute_transform {
  dmat dtri tri_to_matrix tmat1 invertmatrix 
  smat stri tri_to_matrix tmat2 concatmatrix } bdef
/ds {stri astore pop} bdef
/dt {dtri astore pop} bdef
/db {2 copy /cols xdef /rows xdef mul dup string
  currentfile exch readhexstring pop
  /bmap xdef pop pop} bdef
/it {gs np dtri aload pop moveto lineto lineto cp c
  cols rows 8 compute_transform 
  {bmap} image gr}bdef
/il {newpath moveto lineto stroke}bdef
currentdict end def
%%EndProlog

%%BeginSetup
MathWorks begin

0 cap

end
%%EndSetup

%%Page: 1 1
%%BeginPageSetup
%%PageBoundingBox:    60   199   548   589
MathWorks begin
bpage
%%EndPageSetup

%%BeginObject: obj1
bplot

/dpi2point 6.94444 def
portraitMode 0125 4250 csm

  298   159  3389  2708 MR c np
85 dict begin %Colortable dictionary
/c0 { 0.000000 0.000000 0.000000 sr} bdef
/c1 { 1.000000 1.000000 1.000000 sr} bdef
/c2 { 0.900000 0.000000 0.000000 sr} bdef
/c3 { 0.000000 0.820000 0.000000 sr} bdef
/c4 { 0.000000 0.000000 0.800000 sr} bdef
/c5 { 0.910000 0.820000 0.320000 sr} bdef
/c6 { 1.000000 0.260000 0.820000 sr} bdef
/c7 { 0.000000 0.820000 0.820000 sr} bdef
c0
1 j
1 sg
   0    0 4001 3002 PR
3.47222 w
0 2446 3100 0 0 -2446 520 2671 4 MP
PP
-3100 0 0 2446 3100 0 0 -2446 520 2671 5 MP stroke
2.31481 w
DO
SO
3.47222 w
0 sg
 520 2671 mt 3620 2671 L
 520  225 mt 3620  225 L
 520 2671 mt  520  225 L
3620 2671 mt 3620  225 L
 520 2671 mt 3620 2671 L
 520 2671 mt  520  225 L
 520 2671 mt  520 2640 L
 520  225 mt  520  256 L
%%IncludeResource: font Helvetica
/Helvetica /ISOLatin1Encoding 69.4444 FMSR

 501 2755 mt 
(0) s
 907 2671 mt  907 2640 L
 907  225 mt  907  256 L
 888 2755 mt 
(2) s
1295 2671 mt 1295 2640 L
1295  225 mt 1295  256 L
1276 2755 mt 
(4) s
1682 2671 mt 1682 2640 L
1682  225 mt 1682  256 L
1663 2755 mt 
(6) s
2070 2671 mt 2070 2640 L
2070  225 mt 2070  256 L
2051 2755 mt 
(8) s
2457 2671 mt 2457 2640 L
2457  225 mt 2457  256 L
2419 2755 mt 
(10) s
2845 2671 mt 2845 2640 L
2845  225 mt 2845  256 L
2807 2755 mt 
(12) s
3232 2671 mt 3232 2640 L
3232  225 mt 3232  256 L
3194 2755 mt 
(14) s
3620 2671 mt 3620 2640 L
3620  225 mt 3620  256 L
3582 2755 mt 
(16) s
 520 2671 mt  551 2671 L
3620 2671 mt 3589 2671 L
 462 2696 mt 
(1) s
 520 2399 mt  551 2399 L
3620 2399 mt 3589 2399 L
 462 2424 mt 
(2) s
 520 2127 mt  551 2127 L
3620 2127 mt 3589 2127 L
 462 2152 mt 
(3) s
 520 1855 mt  551 1855 L
3620 1855 mt 3589 1855 L
 462 1880 mt 
(4) s
 520 1583 mt  551 1583 L
3620 1583 mt 3589 1583 L
 462 1608 mt 
(5) s
 520 1312 mt  551 1312 L
3620 1312 mt 3589 1312 L
 462 1337 mt 
(6) s
 520 1040 mt  551 1040 L
3620 1040 mt 3589 1040 L
 462 1065 mt 
(7) s
 520  768 mt  551  768 L
3620  768 mt 3589  768 L
 462  793 mt 
(8) s
 520  496 mt  551  496 L
3620  496 mt 3589  496 L
 462  521 mt 
(9) s
 520  225 mt  551  225 L
3620  225 mt 3589  225 L
 423  250 mt 
(10) s
 520 2671 mt 3620 2671 L
 520  225 mt 3620  225 L
 520 2671 mt  520  225 L
3620 2671 mt 3620  225 L
gs 520 225 3101 2447 MR c np
194 0 193 0 194 0 194 -1 194 3 193 -6 194 -10 194 -21 
194 -41 193 -84 194 -166 194 333 194 666 713 1583 14 MP stroke
194 0 193 -1 194 1 194 2 194 -3 193 6 194 12 194 -25 
194 50 193 -100 194 -200 194 401 194 801 713 1312 14 MP stroke
194 -1 194 1 193 -1 194 -1 194 -1 194 -4 193 7 194 15 
194 -29 194 -59 193 117 194 -234 194 469 194 937 713 1040 15 MP stroke
194 0 193 0 194 1 194 -2 194 4 193 -8 194 -17 194 -33 
194 67 193 134 194 -268 194 536 194 1074 713 768 14 MP stroke
194 0 194 0 194 -1 193 0 194 1 194 -2 194 -5 193 9 
194 -19 194 38 194 76 193 151 194 -302 194 604 194 1210 713 496 16 MP stroke
194 -1 194 1 193 -1 194 1 194 -2 194 5 193 -10 194 -21 
194 -43 194 -84 193 -168 194 337 194 672 194 1345 713 225 15 MP stroke
gr

1936 2838 mt 
(Iteracion) s
 376 1626 mt  -90 rotate
(Valor Inicial) s
90 rotate

end %%Color Dict

eplot
%%EndObject

epage
end

showpage

%%Trailer
%%EOF
